---
http_interactions:
- request:
    method: post
    uri: http://api.marketcloud.it/v0/tokens
    body:
      encoding: UTF-8
      string: '{"publicKey":"e8152fe2-237a-4360-8ad2-f3773082226c","secretKey":"BQTYMR3JYbPR0lBla9hyRSZOC3tgekuEdZEV0ErAAIg=","timestamp":1483309009}'
    headers:
      User-Agent:
      - Faraday v0.10.1
      Content-Type:
      - application/json
      Accept:
      - application/json
      Accept-Encoding:
      - gzip;q=1.0,deflate;q=0.6,identity;q=0.3
  response:
    status:
      code: 200
      message: OK
    headers:
      Content-Length:
      - '191'
      Content-Type:
      - application/json; charset=utf-8
      Etag:
      - W/"46-rivj+Mpg73DkJKy1NddwNg"
      Vary:
      - Accept-Encoding
      Server:
      - Microsoft-IIS/8.0
      X-Powered-By:
      - ASP.NET
      Set-Cookie:
      - ARRAffinity=8a668df407d29250bae4eebb17b37024c7eb17badf1be7615a664b56c50607d8;Path=/;Domain=api.marketcloud.it
      Date:
      - Sun, 01 Jan 2017 22:16:48 GMT
    body:
      encoding: ASCII-8BIT
      string: '{"status":true,"token":"ZoIKr4Wp/TtH7rvBoSZav/otcGa6aDPnCrM2FvArW28="}'
    http_version: 
  recorded_at: Sun, 01 Jan 2017 22:16:49 GMT
- request:
    method: get
    uri: http://api.marketcloud.it//v0/addresses?user_id=107227
    body:
      encoding: US-ASCII
      string: ''
    headers:
      User-Agent:
      - Faraday v0.10.1
      Content-Type:
      - application/json
      Accept:
      - application/json
      Authorization:
      - e8152fe2-237a-4360-8ad2-f3773082226c:ZoIKr4Wp/TtH7rvBoSZav/otcGa6aDPnCrM2FvArW28=
      Accept-Encoding:
      - gzip;q=1.0,deflate;q=0.6,identity;q=0.3
  response:
    status:
      code: 200
      message: OK
    headers:
      Content-Length:
      - '589'
      Content-Type:
      - application/json; charset=utf-8
      Etag:
      - W/"1216-I4raaGl4AJVXVi4fmabf1A"
      Vary:
      - Accept-Encoding
      Server:
      - Microsoft-IIS/8.0
      X-Powered-By:
      - ASP.NET
      Set-Cookie:
      - ARRAffinity=8a668df407d29250bae4eebb17b37024c7eb17badf1be7615a664b56c50607d8;Path=/;Domain=api.marketcloud.it
      Date:
      - Sun, 01 Jan 2017 22:16:47 GMT
    body:
      encoding: ASCII-8BIT
      string: '{"status":true,"data":[{"full_name":"Pinco Pallo","id":107723,"user_id":107237,"address1":"Via
        Vittor Pisani 13","address2":null,"city":"Milano","country":"Italy","postal_code":"20127","company":null,"phone_number":null,"alternate_phone_number":null,"email":"pinco@pallo.com","vat":null,"application_id":107224},{"full_name":"Pinco
        Pallo","id":107722,"user_id":107237,"address1":"Via Vittor Pisani 13","address2":null,"city":"Milano","country":"Italy","postal_code":"20127","company":null,"phone_number":null,"alternate_phone_number":null,"email":"pinco@pallo.com","vat":null,"application_id":107224},{"full_name":"","id":107538,"user_id":0,"address1":"","address2":"","city":"","country":"","postal_code":"","company":null,"phone_number":"","alternate_phone_number":"","email":"","vat":"","application_id":107224},{"full_name":"","id":107537,"user_id":0,"address1":"","address2":"","city":"","country":"","postal_code":"","company":null,"phone_number":"","alternate_phone_number":"","email":"","vat":"","application_id":107224},{"full_name":"","id":107535,"user_id":0,"address1":"","address2":"","city":"","country":"","postal_code":"","company":null,"phone_number":"","alternate_phone_number":"","email":"","vat":"","application_id":107224},{"full_name":"","id":107534,"user_id":0,"address1":"","address2":"","city":"","country":"","postal_code":"","company":null,"phone_number":"","alternate_phone_number":"","email":"","vat":"","application_id":107224},{"full_name":"","id":107533,"user_id":0,"address1":"","address2":"","city":"","country":"","postal_code":"","company":null,"phone_number":"","alternate_phone_number":"","email":"","vat":"","application_id":107224},{"full_name":"","id":107532,"user_id":0,"address1":"","address2":"","city":"","country":"","postal_code":"","company":null,"phone_number":"","alternate_phone_number":"","email":"","vat":"","application_id":107224},{"full_name":"","id":107531,"user_id":0,"address1":"","address2":"","city":"","country":"","postal_code":"","company":null,"phone_number":"","alternate_phone_number":"","email":"","vat":"","application_id":107224},{"full_name":"","id":107530,"user_id":0,"address1":"","address2":"","city":"","country":"","postal_code":"","company":null,"phone_number":"","alternate_phone_number":"","email":"","vat":"","application_id":107224},{"full_name":"","id":107529,"user_id":0,"address1":"","address2":"","city":"","country":"","postal_code":"","company":null,"phone_number":"","alternate_phone_number":"","email":"","vat":"","application_id":107224},{"full_name":"","id":107528,"user_id":0,"address1":"","address2":"","city":"","country":"","postal_code":"","company":null,"phone_number":"","alternate_phone_number":"","email":"","vat":"","application_id":107224},{"full_name":"","id":107527,"user_id":0,"address1":"","address2":"","city":"","country":"","postal_code":"","company":null,"phone_number":"","alternate_phone_number":"","email":"","vat":"","application_id":107224},{"full_name":"","id":107526,"user_id":0,"address1":"","address2":"","city":"","country":"","postal_code":"","company":null,"phone_number":"","alternate_phone_number":"","email":"","vat":"","application_id":107224},{"full_name":"","id":107525,"user_id":0,"address1":"","address2":"","city":"","country":"","postal_code":"","company":null,"phone_number":"","alternate_phone_number":"","email":"","vat":"","application_id":107224},{"full_name":"","id":107524,"user_id":0,"address1":"","address2":"","city":"","country":"","postal_code":"","company":null,"phone_number":"","alternate_phone_number":"","email":"","vat":"","application_id":107224},{"full_name":"","id":107523,"user_id":0,"address1":"","address2":"","city":"","country":"","postal_code":"","company":null,"phone_number":"","alternate_phone_number":"","email":"","vat":"","application_id":107224},{"full_name":"","id":107522,"user_id":0,"address1":"","address2":"","city":"","country":"","postal_code":"","company":null,"phone_number":"","alternate_phone_number":"","email":"","vat":"","application_id":107224},{"full_name":"","id":107521,"user_id":0,"address1":"","address2":"","city":"","country":"","postal_code":"","company":null,"phone_number":"","alternate_phone_number":"","email":"","vat":"","application_id":107224},{"full_name":"","id":107520,"user_id":0,"address1":"","address2":"","city":"","country":"","postal_code":"","company":null,"phone_number":"","alternate_phone_number":"","email":"","vat":"","application_id":107224}],"_links":{"curr":"http://api.marketcloud.it/v0/addresses?user_id=107227&","next":"http://api.marketcloud.it/v0/addresses?user_id=107227&page=2&"},"count":88,"page":1,"pages":5}'
    http_version: 
  recorded_at: Sun, 01 Jan 2017 22:16:49 GMT
recorded_with: VCR 3.0.3
